Lab 05/bonus/group19_lab5_part5/cpu_wavedata.vcd
$date
	Wed Feb  9 11:02:55 2022
$end
$version
	Icarus Verilog
$end
$timescale
	1s
$end
$scope module cpu_tb $end
$scope module mycpu $end
$scope module register $end
$var reg 8 ! \register[0] [7:0] $end
$upscope $end
$upscope $end
$upscope $end
$scope module cpu_tb $end
$scope module mycpu $end
$scope module register $end
$var reg 8 " \register[1] [7:0] $end
$upscope $end
$upscope $end
$upscope $end
$scope module cpu_tb $end
$scope module mycpu $end
$scope module register $end
$var reg 8 # \register[2] [7:0] $end
$upscope $end
$upscope $end
$upscope $end
$scope module cpu_tb $end
$scope module mycpu $end
$scope module register $end
$var reg 8 $ \register[3] [7:0] $end
$upscope $end
$upscope $end
$upscope $end
$scope module cpu_tb $end
$scope module mycpu $end
$scope module register $end
$var reg 8 % \register[4] [7:0] $end
$upscope $end
$upscope $end
$upscope $end
$scope module cpu_tb $end
$scope module mycpu $end
$scope module register $end
$var reg 8 & \register[5] [7:0] $end
$upscope $end
$upscope $end
$upscope $end
$scope module cpu_tb $end
$scope module mycpu $end
$scope module register $end
$var reg 8 ' \register[6] [7:0] $end
$upscope $end
$upscope $end
$upscope $end
$scope module cpu_tb $end
$scope module mycpu $end
$scope module register $end
$var reg 8 ( \register[7] [7:0] $end
$upscope $end
$upscope $end
$upscope $end
$scope module cpu_tb $end
$var wire 32 ) PC [31:0] $end
$var reg 1 * CLK $end
$var reg 32 + INSTRUCTION [31:0] $end
$var reg 1 , RESET $end
$scope module mycpu $end
$var wire 1 * CLK $end
$var wire 32 - INSTRUCTION [31:0] $end
$var wire 1 , RESET $end
$var wire 1 . ZERO $end
$var wire 1 / WRITE_ENABLE $end
$var wire 1 0 SHIFT_TYPE $end
$var wire 10 1 SHIFTED [9:0] $end
$var wire 32 2 PC [31:0] $end
$var wire 8 3 OUT2 [7:0] $end
$var wire 8 4 OUT1 [7:0] $end
$var wire 8 5 NEG [7:0] $end
$var wire 1 6 MUX2SELECT $end
$var wire 8 7 MUX2OUT [7:0] $end
$var wire 1 8 MUX1SELECT $end
$var wire 8 9 MUX1OUT [7:0] $end
$var wire 1 : JUMP_ENABLE $end
$var wire 32 ; EXTENDED [31:0] $end
$var wire 1 < BRANCH_SELECT $end
$var wire 1 = BRANCH_ENABLE $end
$var wire 8 > ALURESULT [7:0] $end
$var wire 3 ? ALUOP [2:0] $end
$var reg 8 @ IMMEDIATE [7:0] $end
$var reg 8 A OFFSET [7:0] $end
$var reg 8 B OPCODE [7:0] $end
$var reg 3 C READREG1 [2:0] $end
$var reg 3 D READREG2 [2:0] $end
$var reg 3 E WRITEREG [2:0] $end
$scope module alu $end
$var wire 8 F resultShift [7:0] $end
$var wire 8 G resultOR [7:0] $end
$var wire 8 H resultFORWARD [7:0] $end
$var wire 8 I resultAND [7:0] $end
$var wire 8 J resultADD [7:0] $end
$var wire 1 0 SHIFT_TYPE $end
$var wire 3 K SELECT [2:0] $end
$var wire 8 L DATA2 [7:0] $end
$var wire 8 M DATA1 [7:0] $end
$var reg 8 N RESULT [7:0] $end
$var reg 1 . ZERO $end
$scope module add1 $end
$var wire 8 O RESULT [7:0] $end
$var wire 8 P DATA2 [7:0] $end
$var wire 8 Q DATA1 [7:0] $end
$upscope $end
$scope module and1 $end
$var wire 8 R RESULT [7:0] $end
$var wire 8 S DATA2 [7:0] $end
$var wire 8 T DATA1 [7:0] $end
$upscope $end
$scope module forward1 $end
$var wire 8 U RESULT [7:0] $end
$var wire 8 V DATA2 [7:0] $end
$upscope $end
$scope module or1 $end
$var wire 8 W RESULT [7:0] $end
$var wire 8 X DATA2 [7:0] $end
$var wire 8 Y DATA1 [7:0] $end
$upscope $end
$scope module sh $end
$var wire 1 Z Y8 $end
$var wire 1 [ Y7 $end
$var wire 1 \ Y6 $end
$var wire 1 ] Y5 $end
$var wire 1 ^ Y4 $end
$var wire 1 _ Y3 $end
$var wire 1 ` Y2 $end
$var wire 1 a Y1 $end
$var wire 1 b X8 $end
$var wire 1 c X7 $end
$var wire 1 d X6 $end
$var wire 1 e X5 $end
$var wire 1 f X4 $end
$var wire 1 g X3 $end
$var wire 1 h X2 $end
$var wire 1 i X1 $end
$var wire 1 j V8 $end
$var wire 1 k V7 $end
$var wire 1 l V6 $end
$var wire 1 m V5 $end
$var wire 1 n V4 $end
$var wire 1 o V3 $end
$var wire 1 p V2 $end
$var wire 1 q V1 $end
$var wire 8 r UNITS [7:0] $end
$var wire 1 s U8 $end
$var wire 1 t U7 $end
$var wire 1 u U6 $end
$var wire 1 v U5 $end
$var wire 1 w U4 $end
$var wire 1 x U3 $end
$var wire 1 y U2 $end
$var wire 1 z U1 $end
$var wire 1 0 SHIFT_TYPE $end
$var wire 8 { IN [7:0] $end
$var wire 1 | D8 $end
$var wire 1 } D7 $end
$var wire 1 ~ D6 $end
$var wire 1 !" D5 $end
$var wire 1 "" D4 $end
$var wire 1 #" D3 $end
$var wire 1 $" D2 $end
$var wire 1 %" D1 $end
$var wire 1 &" C8 $end
$var wire 1 '" C7 $end
$var wire 1 (" C6 $end
$var wire 1 )" C5 $end
$var wire 1 *" C4 $end
$var wire 1 +" C3 $end
$var wire 1 ," C2 $end
$var wire 1 -" C1 $end
$var wire 1 ." B8 $end
$var wire 1 /" B7 $end
$var wire 1 0" B6 $end
$var wire 1 1" B5 $end
$var wire 1 2" B4 $end
$var wire 1 3" B3 $end
$var wire 1 4" B2 $end
$var wire 1 5" B1 $end
$var wire 1 6" A8 $end
$var wire 1 7" A7 $end
$var wire 1 8" A6 $end
$var wire 1 9" A5 $end
$var wire 1 :" A4 $end
$var wire 1 ;" A3 $end
$var wire 1 <" A2 $end
$var wire 1 =" A1 $end
$var reg 8 >" LEFT [7:0] $end
$var reg 8 ?" OUT [7:0] $end
$var reg 8 @" RIGHT [7:0] $end
$var reg 1 A" S0 $end
$var reg 1 B" S1 $end
$var reg 1 C" S2 $end
$var reg 1 D" S3 $end
$var reg 4 E" UNIT [3:0] $end
$scope module L01 $end
$var wire 1 F" IN1 $end
$var wire 1 G" IN2 $end
$var wire 1 =" OUT $end
$var wire 1 H" OUT1 $end
$var wire 1 I" OUT2 $end
$var wire 1 A" SELECT $end
$upscope $end
$scope module L02 $end
$var wire 1 J" IN1 $end
$var wire 1 K" IN2 $end
$var wire 1 <" OUT $end
$var wire 1 L" OUT1 $end
$var wire 1 M" OUT2 $end
$var wire 1 A" SELECT $end
$upscope $end
$scope module L03 $end
$var wire 1 N" IN1 $end
$var wire 1 O" IN2 $end
$var wire 1 ;" OUT $end
$var wire 1 P" OUT1 $end
$var wire 1 Q" OUT2 $end
$var wire 1 A" SELECT $end
$upscope $end
$scope module L04 $end
$var wire 1 R" IN1 $end
$var wire 1 S" IN2 $end
$var wire 1 :" OUT $end
$var wire 1 T" OUT1 $end
$var wire 1 U" OUT2 $end
$var wire 1 A" SELECT $end
$upscope $end
$scope module L05 $end
$var wire 1 V" IN1 $end
$var wire 1 W" IN2 $end
$var wire 1 9" OUT $end
$var wire 1 X" OUT1 $end
$var wire 1 Y" OUT2 $end
$var wire 1 A" SELECT $end
$upscope $end
$scope module L06 $end
$var wire 1 Z" IN1 $end
$var wire 1 [" IN2 $end
$var wire 1 8" OUT $end
$var wire 1 \" OUT1 $end
$var wire 1 ]" OUT2 $end
$var wire 1 A" SELECT $end
$upscope $end
$scope module L07 $end
$var wire 1 ^" IN1 $end
$var wire 1 _" IN2 $end
$var wire 1 7" OUT $end
$var wire 1 `" OUT1 $end
$var wire 1 a" OUT2 $end
$var wire 1 A" SELECT $end
$upscope $end
$scope module L08 $end
$var wire 1 b" IN1 $end
$var wire 1 c" IN2 $end
$var wire 1 6" OUT $end
$var wire 1 d" OUT1 $end
$var wire 1 e" OUT2 $end
$var wire 1 A" SELECT $end
$upscope $end
$scope module L11 $end
$var wire 1 =" IN1 $end
$var wire 1 f" IN2 $end
$var wire 1 5" OUT $end
$var wire 1 g" OUT1 $end
$var wire 1 h" OUT2 $end
$var wire 1 B" SELECT $end
$upscope $end
$scope module L12 $end
$var wire 1 <" IN1 $end
$var wire 1 i" IN2 $end
$var wire 1 4" OUT $end
$var wire 1 j" OUT1 $end
$var wire 1 k" OUT2 $end
$var wire 1 B" SELECT $end
$upscope $end
$scope module L13 $end
$var wire 1 ;" IN1 $end
$var wire 1 =" IN2 $end
$var wire 1 3" OUT $end
$var wire 1 l" OUT1 $end
$var wire 1 m" OUT2 $end
$var wire 1 B" SELECT $end
$upscope $end
$scope module L14 $end
$var wire 1 :" IN1 $end
$var wire 1 <" IN2 $end
$var wire 1 2" OUT $end
$var wire 1 n" OUT1 $end
$var wire 1 o" OUT2 $end
$var wire 1 B" SELECT $end
$upscope $end
$scope module L15 $end
$var wire 1 9" IN1 $end
$var wire 1 ;" IN2 $end
$var wire 1 1" OUT $end
$var wire 1 p" OUT1 $end
$var wire 1 q" OUT2 $end
$var wire 1 B" SELECT $end
$upscope $end
$scope module L16 $end
$var wire 1 8" IN1 $end
$var wire 1 :" IN2 $end
$var wire 1 0" OUT $end
$var wire 1 r" OUT1 $end
$var wire 1 s" OUT2 $end
$var wire 1 B" SELECT $end
$upscope $end
$scope module L17 $end
$var wire 1 7" IN1 $end
$var wire 1 9" IN2 $end
$var wire 1 /" OUT $end
$var wire 1 t" OUT1 $end
$var wire 1 u" OUT2 $end
$var wire 1 B" SELECT $end
$upscope $end
$scope module L18 $end
$var wire 1 6" IN1 $end
$var wire 1 8" IN2 $end
$var wire 1 ." OUT $end
$var wire 1 v" OUT1 $end
$var wire 1 w" OUT2 $end
$var wire 1 B" SELECT $end
$upscope $end
$scope module L21 $end
$var wire 1 5" IN1 $end
$var wire 1 x" IN2 $end
$var wire 1 -" OUT $end
$var wire 1 y" OUT1 $end
$var wire 1 z" OUT2 $end
$var wire 1 C" SELECT $end
$upscope $end
$scope module L22 $end
$var wire 1 4" IN1 $end
$var wire 1 {" IN2 $end
$var wire 1 ," OUT $end
$var wire 1 |" OUT1 $end
$var wire 1 }" OUT2 $end
$var wire 1 C" SELECT $end
$upscope $end
$scope module L23 $end
$var wire 1 3" IN1 $end
$var wire 1 ~" IN2 $end
$var wire 1 +" OUT $end
$var wire 1 !# OUT1 $end
$var wire 1 "# OUT2 $end
$var wire 1 C" SELECT $end
$upscope $end
$scope module L24 $end
$var wire 1 2" IN1 $end
$var wire 1 ## IN2 $end
$var wire 1 *" OUT $end
$var wire 1 $# OUT1 $end
$var wire 1 %# OUT2 $end
$var wire 1 C" SELECT $end
$upscope $end
$scope module L25 $end
$var wire 1 1" IN1 $end
$var wire 1 5" IN2 $end
$var wire 1 )" OUT $end
$var wire 1 &# OUT1 $end
$var wire 1 '# OUT2 $end
$var wire 1 C" SELECT $end
$upscope $end
$scope module L26 $end
$var wire 1 0" IN1 $end
$var wire 1 4" IN2 $end
$var wire 1 (" OUT $end
$var wire 1 (# OUT1 $end
$var wire 1 )# OUT2 $end
$var wire 1 C" SELECT $end
$upscope $end
$scope module L27 $end
$var wire 1 /" IN1 $end
$var wire 1 3" IN2 $end
$var wire 1 '" OUT $end
$var wire 1 *# OUT1 $end
$var wire 1 +# OUT2 $end
$var wire 1 C" SELECT $end
$upscope $end
$scope module L28 $end
$var wire 1 ." IN1 $end
$var wire 1 2" IN2 $end
$var wire 1 &" OUT $end
$var wire 1 ,# OUT1 $end
$var wire 1 -# OUT2 $end
$var wire 1 C" SELECT $end
$upscope $end
$scope module L31 $end
$var wire 1 -" IN1 $end
$var wire 1 .# IN2 $end
$var wire 1 %" OUT $end
$var wire 1 /# OUT1 $end
$var wire 1 0# OUT2 $end
$var wire 1 D" SELECT $end
$upscope $end
$scope module L32 $end
$var wire 1 ," IN1 $end
$var wire 1 1# IN2 $end
$var wire 1 $" OUT $end
$var wire 1 2# OUT1 $end
$var wire 1 3# OUT2 $end
$var wire 1 D" SELECT $end
$upscope $end
$scope module L33 $end
$var wire 1 +" IN1 $end
$var wire 1 4# IN2 $end
$var wire 1 #" OUT $end
$var wire 1 5# OUT1 $end
$var wire 1 6# OUT2 $end
$var wire 1 D" SELECT $end
$upscope $end
$scope module L34 $end
$var wire 1 *" IN1 $end
$var wire 1 7# IN2 $end
$var wire 1 "" OUT $end
$var wire 1 8# OUT1 $end
$var wire 1 9# OUT2 $end
$var wire 1 D" SELECT $end
$upscope $end
$scope module L35 $end
$var wire 1 )" IN1 $end
$var wire 1 :# IN2 $end
$var wire 1 !" OUT $end
$var wire 1 ;# OUT1 $end
$var wire 1 <# OUT2 $end
$var wire 1 D" SELECT $end
$upscope $end
$scope module L36 $end
$var wire 1 (" IN1 $end
$var wire 1 =# IN2 $end
$var wire 1 ~ OUT $end
$var wire 1 ># OUT1 $end
$var wire 1 ?# OUT2 $end
$var wire 1 D" SELECT $end
$upscope $end
$scope module L37 $end
$var wire 1 '" IN1 $end
$var wire 1 @# IN2 $end
$var wire 1 } OUT $end
$var wire 1 A# OUT1 $end
$var wire 1 B# OUT2 $end
$var wire 1 D" SELECT $end
$upscope $end
$scope module L38 $end
$var wire 1 &" IN1 $end
$var wire 1 C# IN2 $end
$var wire 1 | OUT $end
$var wire 1 D# OUT1 $end
$var wire 1 E# OUT2 $end
$var wire 1 D" SELECT $end
$upscope $end
$scope module R01 $end
$var wire 1 F# IN1 $end
$var wire 1 G# IN2 $end
$var wire 1 z OUT $end
$var wire 1 H# OUT1 $end
$var wire 1 I# OUT2 $end
$var wire 1 A" SELECT $end
$upscope $end
$scope module R02 $end
$var wire 1 J# IN1 $end
$var wire 1 K# IN2 $end
$var wire 1 y OUT $end
$var wire 1 L# OUT1 $end
$var wire 1 M# OUT2 $end
$var wire 1 A" SELECT $end
$upscope $end
$scope module R03 $end
$var wire 1 N# IN1 $end
$var wire 1 O# IN2 $end
$var wire 1 x OUT $end
$var wire 1 P# OUT1 $end
$var wire 1 Q# OUT2 $end
$var wire 1 A" SELECT $end
$upscope $end
$scope module R04 $end
$var wire 1 R# IN1 $end
$var wire 1 S# IN2 $end
$var wire 1 w OUT $end
$var wire 1 T# OUT1 $end
$var wire 1 U# OUT2 $end
$var wire 1 A" SELECT $end
$upscope $end
$scope module R05 $end
$var wire 1 V# IN1 $end
$var wire 1 W# IN2 $end
$var wire 1 v OUT $end
$var wire 1 X# OUT1 $end
$var wire 1 Y# OUT2 $end
$var wire 1 A" SELECT $end
$upscope $end
$scope module R06 $end
$var wire 1 Z# IN1 $end
$var wire 1 [# IN2 $end
$var wire 1 u OUT $end
$var wire 1 \# OUT1 $end
$var wire 1 ]# OUT2 $end
$var wire 1 A" SELECT $end
$upscope $end
$scope module R07 $end
$var wire 1 ^# IN1 $end
$var wire 1 _# IN2 $end
$var wire 1 t OUT $end
$var wire 1 `# OUT1 $end
$var wire 1 a# OUT2 $end
$var wire 1 A" SELECT $end
$upscope $end
$scope module R08 $end
$var wire 1 b# IN1 $end
$var wire 1 c# IN2 $end
$var wire 1 s OUT $end
$var wire 1 d# OUT1 $end
$var wire 1 e# OUT2 $end
$var wire 1 A" SELECT $end
$upscope $end
$scope module R11 $end
$var wire 1 z IN1 $end
$var wire 1 x IN2 $end
$var wire 1 q OUT $end
$var wire 1 f# OUT1 $end
$var wire 1 g# OUT2 $end
$var wire 1 B" SELECT $end
$upscope $end
$scope module R12 $end
$var wire 1 y IN1 $end
$var wire 1 w IN2 $end
$var wire 1 p OUT $end
$var wire 1 h# OUT1 $end
$var wire 1 i# OUT2 $end
$var wire 1 B" SELECT $end
$upscope $end
$scope module R13 $end
$var wire 1 x IN1 $end
$var wire 1 v IN2 $end
$var wire 1 o OUT $end
$var wire 1 j# OUT1 $end
$var wire 1 k# OUT2 $end
$var wire 1 B" SELECT $end
$upscope $end
$scope module R14 $end
$var wire 1 w IN1 $end
$var wire 1 u IN2 $end
$var wire 1 n OUT $end
$var wire 1 l# OUT1 $end
$var wire 1 m# OUT2 $end
$var wire 1 B" SELECT $end
$upscope $end
$scope module R15 $end
$var wire 1 v IN1 $end
$var wire 1 t IN2 $end
$var wire 1 m OUT $end
$var wire 1 n# OUT1 $end
$var wire 1 o# OUT2 $end
$var wire 1 B" SELECT $end
$upscope $end
$scope module R16 $end
$var wire 1 u IN1 $end
$var wire 1 s IN2 $end
$var wire 1 l OUT $end
$var wire 1 p# OUT1 $end
$var wire 1 q# OUT2 $end
$var wire 1 B" SELECT $end
$upscope $end
$scope module R17 $end
$var wire 1 t IN1 $end
$var wire 1 r# IN2 $end
$var wire 1 k OUT $end
$var wire 1 s# OUT1 $end
$var wire 1 t# OUT2 $end
$var wire 1 B" SELECT $end
$upscope $end
$scope module R18 $end
$var wire 1 s IN1 $end
$var wire 1 u# IN2 $end
$var wire 1 j OUT $end
$var wire 1 v# OUT1 $end
$var wire 1 w# OUT2 $end
$var wire 1 B" SELECT $end
$upscope $end
$scope module R21 $end
$var wire 1 q IN1 $end
$var wire 1 m IN2 $end
$var wire 1 i OUT $end
$var wire 1 x# OUT1 $end
$var wire 1 y# OUT2 $end
$var wire 1 C" SELECT $end
$upscope $end
$scope module R22 $end
$var wire 1 p IN1 $end
$var wire 1 l IN2 $end
$var wire 1 h OUT $end
$var wire 1 z# OUT1 $end
$var wire 1 {# OUT2 $end
$var wire 1 C" SELECT $end
$upscope $end
$scope module R23 $end
$var wire 1 o IN1 $end
$var wire 1 k IN2 $end
$var wire 1 g OUT $end
$var wire 1 |# OUT1 $end
$var wire 1 }# OUT2 $end
$var wire 1 C" SELECT $end
$upscope $end
$scope module R24 $end
$var wire 1 n IN1 $end
$var wire 1 j IN2 $end
$var wire 1 f OUT $end
$var wire 1 ~# OUT1 $end
$var wire 1 !$ OUT2 $end
$var wire 1 C" SELECT $end
$upscope $end
$scope module R25 $end
$var wire 1 m IN1 $end
$var wire 1 "$ IN2 $end
$var wire 1 e OUT $end
$var wire 1 #$ OUT1 $end
$var wire 1 $$ OUT2 $end
$var wire 1 C" SELECT $end
$upscope $end
$scope module R26 $end
$var wire 1 l IN1 $end
$var wire 1 %$ IN2 $end
$var wire 1 d OUT $end
$var wire 1 &$ OUT1 $end
$var wire 1 '$ OUT2 $end
$var wire 1 C" SELECT $end
$upscope $end
$scope module R27 $end
$var wire 1 k IN1 $end
$var wire 1 ($ IN2 $end
$var wire 1 c OUT $end
$var wire 1 )$ OUT1 $end
$var wire 1 *$ OUT2 $end
$var wire 1 C" SELECT $end
$upscope $end
$scope module R28 $end
$var wire 1 j IN1 $end
$var wire 1 +$ IN2 $end
$var wire 1 b OUT $end
$var wire 1 ,$ OUT1 $end
$var wire 1 -$ OUT2 $end
$var wire 1 C" SELECT $end
$upscope $end
$scope module R31 $end
$var wire 1 i IN1 $end
$var wire 1 .$ IN2 $end
$var wire 1 a OUT $end
$var wire 1 /$ OUT1 $end
$var wire 1 0$ OUT2 $end
$var wire 1 D" SELECT $end
$upscope $end
$scope module R32 $end
$var wire 1 h IN1 $end
$var wire 1 1$ IN2 $end
$var wire 1 ` OUT $end
$var wire 1 2$ OUT1 $end
$var wire 1 3$ OUT2 $end
$var wire 1 D" SELECT $end
$upscope $end
$scope module R33 $end
$var wire 1 g IN1 $end
$var wire 1 4$ IN2 $end
$var wire 1 _ OUT $end
$var wire 1 5$ OUT1 $end
$var wire 1 6$ OUT2 $end
$var wire 1 D" SELECT $end
$upscope $end
$scope module R34 $end
$var wire 1 f IN1 $end
$var wire 1 7$ IN2 $end
$var wire 1 ^ OUT $end
$var wire 1 8$ OUT1 $end
$var wire 1 9$ OUT2 $end
$var wire 1 D" SELECT $end
$upscope $end
$scope module R35 $end
$var wire 1 e IN1 $end
$var wire 1 :$ IN2 $end
$var wire 1 ] OUT $end
$var wire 1 ;$ OUT1 $end
$var wire 1 <$ OUT2 $end
$var wire 1 D" SELECT $end
$upscope $end
$scope module R36 $end
$var wire 1 d IN1 $end
$var wire 1 =$ IN2 $end
$var wire 1 \ OUT $end
$var wire 1 >$ OUT1 $end
$var wire 1 ?$ OUT2 $end
$var wire 1 D" SELECT $end
$upscope $end
$scope module R37 $end
$var wire 1 c IN1 $end
$var wire 1 @$ IN2 $end
$var wire 1 [ OUT $end
$var wire 1 A$ OUT1 $end
$var wire 1 B$ OUT2 $end
$var wire 1 D" SELECT $end
$upscope $end
$scope module R38 $end
$var wire 1 b IN1 $end
$var wire 1 C$ IN2 $end
$var wire 1 Z OUT $end
$var wire 1 D$ OUT1 $end
$var wire 1 E$ OUT2 $end
$var wire 1 D" SELECT $end
$upscope $end
$upscope $end
$upscope $end
$scope module andmodule $end
$var wire 1 . IN1 $end
$var wire 1 = IN2 $end
$var reg 1 < OUT $end
$upscope $end
$scope module beqadder $end
$var wire 1 < BRANCH_SELECT $end
$var wire 1 * CLK $end
$var wire 1 , RESET $end
$var wire 32 F$ TARGET_ADDRESS [31:0] $end
$var wire 32 G$ SHIFTED_OFFSET [31:0] $end
$var wire 32 H$ MUX2OUT [31:0] $end
$var wire 32 I$ MUX1OUT [31:0] $end
$var wire 1 : JUMP_ENABLE $end
$var reg 32 J$ PC [31:0] $end
$var reg 32 K$ temp [31:0] $end
$scope module mbr1 $end
$var wire 32 L$ IN2 [31:0] $end
$var wire 1 < SELECT $end
$var wire 32 M$ IN1 [31:0] $end
$var reg 32 N$ OUT [31:0] $end
$upscope $end
$scope module mbr2 $end
$var wire 32 O$ IN2 [31:0] $end
$var wire 1 : SELECT $end
$var wire 32 P$ IN1 [31:0] $end
$var reg 32 Q$ OUT [31:0] $end
$upscope $end
$scope module target $end
$var wire 32 R$ PCNEXT [31:0] $end
$var wire 32 S$ TARGET [31:0] $end
$var wire 32 T$ SHIFTED_OFFSET [31:0] $end
$upscope $end
$upscope $end
$scope module cu $end
$var wire 8 U$ OPCODE [7:0] $end
$var reg 3 V$ ALUOP [2:0] $end
$var reg 1 = BRANCH_ENABLE $end
$var reg 1 : JUMP_ENABLE $end
$var reg 1 8 MUX1SELECT $end
$var reg 1 6 MUX2SELECT $end
$var reg 1 0 SHIFT_TYPE $end
$var reg 1 / WRITE_ENABLE $end
$upscope $end
$scope module ex $end
$var wire 32 W$ EXTENDED [31:0] $end
$var wire 10 X$ EXTEND [9:0] $end
$upscope $end
$scope module f1 $end
$var wire 8 Y$ OUT [7:0] $end
$var wire 8 Z$ IN [7:0] $end
$upscope $end
$scope module m1 $end
$var wire 8 [$ IN2 [7:0] $end
$var wire 1 8 SELECT $end
$var wire 8 \$ IN1 [7:0] $end
$var reg 8 ]$ OUT [7:0] $end
$upscope $end
$scope module m2 $end
$var wire 8 ^$ IN1 [7:0] $end
$var wire 8 _$ IN2 [7:0] $end
$var wire 1 6 SELECT $end
$var reg 8 `$ OUT [7:0] $end
$upscope $end
$scope module register $end
$var wire 1 * CLK $end
$var wire 8 a$ IN [7:0] $end
$var wire 3 b$ INADDRESS [2:0] $end
$var wire 3 c$ OUT1ADDRESS [2:0] $end
$var wire 3 d$ OUT2ADDRESS [2:0] $end
$var wire 1 , RESET $end
$var wire 1 / WRITE $end
$var reg 8 e$ OUT1 [7:0] $end
$var reg 8 f$ OUT2 [7:0] $end
$var integer 32 g$ i [31:0] $end
$upscope $end
$scope module sl $end
$var wire 8 h$ SHIFT [7:0] $end
$var wire 10 i$ SHIFTED [9:0] $end
$upscope $end
$upscope $end
$upscope $end
$enddefinitions $end
#0
$dumpvars
bx00 i$
bx h$
b1000 g$
bx f$
bx e$
bx d$
bx c$
bx b$
bx a$
bx `$
bx _$
bx ^$
bx ]$
bx \$
bx [$
bx Z$
bx Y$
bx00 X$
bx00 W$
bx V$
bx U$
bx00 T$
bx S$
bx R$
bx Q$
bx P$
bx O$
bx N$
bx M$
bx L$
bx K$
bx J$
bx I$
bx H$
bx00 G$
bx F$
0E$
xD$
0C$
0B$
xA$
0@$
0?$
x>$
0=$
0<$
x;$
0:$
09$
x8$
07$
06$
x5$
04$
03$
x2$
01$
00$
x/$
0.$
0-$
x,$
0+$
0*$
x)$
0($
0'$
x&$
0%$
0$$
x#$
0"$
x!$
x~#
x}#
x|#
x{#
xz#
xy#
xx#
0w#
xv#
0u#
0t#
xs#
0r#
xq#
xp#
xo#
xn#
xm#
xl#
xk#
xj#
xi#
xh#
xg#
xf#
0e#
xd#
0c#
xb#
xa#
x`#
x_#
x^#
x]#
x\#
x[#
xZ#
xY#
xX#
xW#
xV#
xU#
xT#
xS#
xR#
xQ#
xP#
xO#
xN#
xM#
xL#
xK#
xJ#
xI#
xH#
xG#
xF#
0E#
xD#
0C#
0B#
xA#
0@#
0?#
x>#
0=#
0<#
x;#
0:#
09#
x8#
07#
06#
x5#
04#
03#
x2#
01#
00#
x/#
0.#
x-#
x,#
x+#
x*#
x)#
x(#
x'#
x&#
0%#
x$#
0##
0"#
x!#
0~"
0}"
x|"
0{"
0z"
xy"
0x"
xw"
xv"
xu"
xt"
xs"
xr"
xq"
xp"
xo"
xn"
xm"
xl"
0k"
xj"
0i"
0h"
xg"
0f"
xe"
xd"
xc"
xb"
xa"
x`"
x_"
x^"
x]"
x\"
x["
xZ"
xY"
xX"
xW"
xV"
xU"
xT"
xS"
xR"
xQ"
xP"
xO"
xN"
xM"
xL"
xK"
xJ"
0I"
xH"
0G"
xF"
bx E"
xD"
xC"
xB"
xA"
bx @"
bx ?"
bx >"
x="
x<"
x;"
x:"
x9"
x8"
x7"
x6"
x5"
x4"
x3"
x2"
x1"
x0"
x/"
x."
x-"
x,"
x+"
x*"
x)"
x("
x'"
x&"
x%"
x$"
x#"
x""
x!"
x~
x}
x|
bx {
xz
xy
xx
xw
xv
xu
xt
xs
bx r
xq
xp
xo
xn
xm
xl
xk
xj
xi
xh
xg
xf
xe
xd
xc
xb
xa
x`
x_
x^
x]
x\
x[
xZ
bx Y
bx X
bx W
bx V
bx U
bx T
bx S
bx R
bx Q
bx P
bx O
bx N
bx M
bx L
bx K
bx J
bx I
bx H
bx G
bx F
bx E
bx D
bx C
bx B
bx A
bx @
bx ?
bx >
x=
x<
bx00 ;
x:
bx 9
x8
bx 7
x6
bx 5
bx 4
bx 3
bx 2
bx00 1
x0
x/
x.
bx -
1,
bx +
0*
bx )
bx (
bx '
bx &
bx %
bx $
bx #
bx "
bx !
$end
#4
1*
#5
b0 )
b0 2
b0 J$
b0 (
b0 '
b0 &
b0 %
b0 $
b0 #
b0 "
b0 !
b1000 g$
#6
b100 K$
b100 L$
b100 R$
#7
0-"
0,"
0c
0b
b0 >"
b0 @"
0y"
0|"
0)$
0,$
0%"
0$"
0#"
0""
0!"
0~
0}
0|
0a
0`
0_
0^
0]
0\
0[
0Z
05"
04"
0k
0j
0/#
02#
05#
08#
0;#
0>#
0A#
0D#
0/$
02$
05$
08$
0;$
0>$
0A$
0D$
0g"
0j"
0l"
0n"
0p"
0r"
0t"
0v"
0f#
0h#
0j#
0l#
0n#
0p#
0s#
0v#
b100 I$
b100 N$
b100 O$
0'#
0)#
0+#
0-#
0y#
0{#
0}#
0!$
0M"
0Q"
0U"
0Y"
0]"
0a"
0e"
0I#
0M#
0Q#
0U#
0Y#
0]#
0a#
0<
1D"
0C"
1B"
0A"
0.
b1010 E"
b10000 ;
b10000 G$
b10000 T$
b10000 W$
b10000 1
b10000 X$
b10000 i$
b1010 7
b1010 L
b1010 P
b1010 S
b1010 V
b1010 X
b1010 r
b1010 `$
b100 A
b100 h$
b1010 @
b1010 ^$
b10 D
b10 d$
b0 C
b0 c$
b100 E
b100 b$
b0 B
b0 U$
b1000000000000001010 +
b1000000000000001010 -
#8
b100 H$
b100 Q$
b1010 >
b1010 N
b1010 a$
b0 F
b0 ?"
bx1x1x G
bx1x1x W
b0x0x0 I
b0x0x0 R
b1010 H
b1010 U
00
0:
0=
1/
16
18
b0 ?
b0 K
b0 V$
0*
#9
0d
0e
0f
0g
0h
0i
0&"
0'"
0("
0)"
0*"
0+"
0&$
0#$
0~#
0|#
0z#
0x#
0,#
0*#
0(#
0&#
0$#
0!#
0l
0m
0n
0o
0p
0q
0."
0/"
00"
01"
02"
03"
0q#
0o#
0m#
0k#
0i#
0g#
0w"
0u"
0s"
0q"
0o"
0m"
0s
0t
0u
0v
0w
0x
0y
0z
06"
07"
08"
09"
0:"
0;"
0<"
0="
0d#
0`#
0\#
0X#
0T#
0P#
0L#
0H#
0d"
0`"
0\"
0X"
0T"
0P"
0L"
0H"
0b#
0_#
0^#
0[#
0Z#
0W#
0V#
0S#
0R#
0O#
0N#
0K#
0J#
0G#
0F#
0c"
0b"
0_"
0^"
0["
0Z"
0W"
0V"
0S"
0R"
0O"
0N"
0K"
0J"
0F"
b0 9
b0 ]$
b0 _$
b0 3
b0 Z$
b0 \$
b0 f$
b0 4
b0 M
b0 Q
b0 T
b0 Y
b0 {
b0 e$
b10100 F$
b10100 M$
b10100 P$
b10100 S$
#10
b0 5
b0 Y$
b0 [$
b1010 G
b1010 W
b0 I
b0 R
0,
#11
b1010 J
b1010 O
#12
b100 )
b100 2
b100 J$
1*
#13
b1000 H$
b1000 Q$
b1000 I$
b1000 N$
b1000 O$
b1000 K$
b1000 L$
b1000 R$
b1010 %
#14
0D"
0B"
1A"
b10100 ;
b10100 G$
b10100 T$
b10100 W$
b10100 1
b10100 X$
b10100 i$
b1 E"
b101 A
b101 h$
b1 7
b1 L
b1 P
b1 S
b1 V
b1 X
b1 r
b1 `$
b1 @
b1 ^$
b1 D
b1 d$
b101 E
b101 b$
b1010000000000000001 +
b1010000000000000001 -
#15
b1 G
b1 W
b1 >
b1 N
b1 a$
b1 H
b1 U
#16
b11100 F$
b11100 M$
b11100 P$
b11100 S$
b1 J
b1 O
0*
#20
b1000 )
b1000 2
b1000 J$
1*
#21
b1100 H$
b1100 Q$
b1100 I$
b1100 N$
b1100 O$
b1100 K$
b1100 L$
b1100 R$
b1 &
